<?xml version="1.0" encoding="UTF-8" standalone="no"?>
<graphml xmlns="http://graphml.graphdrawing.org/xmlns" xmlns:java="http://www.yworks.com/xml/yfiles-common/1.0/java" xmlns:sys="http://www.yworks.com/xml/yfiles-common/markup/primitives/2.0" xmlns:x="http://www.yworks.com/xml/yfiles-common/markup/2.0" xmlns:xsi="http://www.w3.org/2001/XMLSchema-instance" xmlns:y="http://www.yworks.com/xml/graphml" xmlns:yed="http://www.yworks.com/xml/yed/3" xsi:schemaLocation="http://graphml.graphdrawing.org/xmlns http://www.yworks.com/xml/schema/graphml/1.1/ygraphml.xsd">
  <!--Created by yEd 3.19-->
  <key attr.name="Beschreibung" attr.type="string" for="graph" id="d0"/>
  <key for="port" id="d1" yfiles.type="portgraphics"/>
  <key for="port" id="d2" yfiles.type="portgeometry"/>
  <key for="port" id="d3" yfiles.type="portuserdata"/>
  <key attr.name="url" attr.type="string" for="node" id="d4"/>
  <key attr.name="description" attr.type="string" for="node" id="d5"/>
  <key for="node" id="d6" yfiles.type="nodegraphics"/>
  <key for="graphml" id="d7" yfiles.type="resources"/>
  <key attr.name="url" attr.type="string" for="edge" id="d8"/>
  <key attr.name="description" attr.type="string" for="edge" id="d9"/>
  <key for="edge" id="d10" yfiles.type="edgegraphics"/>
  <graph edgedefault="directed" id="G">
    <data key="d0"/>
    <node id="n0" yfiles.foldertype="group">
      <data key="d6">
        <y:ProxyAutoBoundsNode>
          <y:Realizers active="0">
            <y:GenericGroupNode configuration="com.yworks.bpmn.Artifact.withShadow">
              <y:Geometry height="289.72342960937704" width="317.1835163344206" x="706.8639999999998" y="-232.93898362500437"/>
              <y:Fill color="#FFFFFFE6" transparent="false"/>
              <y:BorderStyle color="#000000" type="dashed_dotted" width="1.0"/>
              <y:NodeLabel alignment="center" autoSizePolicy="content" fontFamily="Gill Sans MT" fontSize="14" fontStyle="bold" hasBackgroundColor="false" hasLineColor="false" height="20.2353515625" horizontalTextPosition="center" iconTextGap="4" modelName="custom" textColor="#000000" verticalTextPosition="bottom" visible="true" width="120.3955078125" x="98.39400426096029" y="265.48807804687704">House of Security<y:LabelModel>
                  <y:SmartNodeLabelModel distance="4.0"/>
                </y:LabelModel>
                <y:ModelParameter>
                  <y:SmartNodeLabelModelParameter labelRatioX="0.0" labelRatioY="0.5" nodeRatioX="0.0" nodeRatioY="0.5" offsetX="0.0" offsetY="-4.0" upX="0.0" upY="-1.0"/>
                </y:ModelParameter>
              </y:NodeLabel>
              <y:StyleProperties>
                <y:Property class="java.awt.Color" name="com.yworks.bpmn.icon.line.color" value="#000000"/>
                <y:Property class="java.awt.Color" name="com.yworks.bpmn.icon.fill2" value="#d4d4d4cc"/>
                <y:Property class="java.awt.Color" name="com.yworks.bpmn.icon.fill" value="#ffffffe6"/>
                <y:Property class="com.yworks.yfiles.bpmn.view.BPMNTypeEnum" name="com.yworks.bpmn.type" value="ARTIFACT_TYPE_GROUP"/>
              </y:StyleProperties>
              <y:State autoResize="true" closed="false" closedHeight="80.0" closedWidth="100.0"/>
              <y:Insets bottom="15" bottomF="15.0" left="15" leftF="15.0" right="15" rightF="15.0" top="15" topF="15.0"/>
              <y:BorderInsets bottom="19" bottomF="18.511633796874946" left="11" leftF="11.177004089684374" right="9" rightF="9.278512244736362" top="0" topF="0.285715812502076"/>
            </y:GenericGroupNode>
            <y:GroupNode>
              <y:Geometry height="50.0" width="50.0" x="0.0" y="60.0"/>
              <y:Fill color="#F5F5F5" transparent="false"/>
              <y:BorderStyle color="#000000" type="dashed" width="1.0"/>
              <y:NodeLabel alignment="right" autoSizePolicy="node_width" backgroundColor="#EBEBEB" borderDistance="0.0" fontFamily="Dialog" fontSize="15" fontStyle="plain" hasLineColor="false" height="22.37646484375" horizontalTextPosition="center" iconTextGap="4" modelName="internal" modelPosition="t" textColor="#000000" verticalTextPosition="bottom" visible="true" width="59.02685546875" x="-4.513427734375" y="0.0">Folder 2</y:NodeLabel>
              <y:Shape type="roundrectangle"/>
              <y:State closed="true" closedHeight="50.0" closedWidth="50.0" innerGraphDisplayEnabled="false"/>
              <y:Insets bottom="5" bottomF="5.0" left="5" leftF="5.0" right="5" rightF="5.0" top="5" topF="5.0"/>
              <y:BorderInsets bottom="0" bottomF="0.0" left="0" leftF="0.0" right="0" rightF="0.0" top="0" topF="0.0"/>
            </y:GroupNode>
          </y:Realizers>
        </y:ProxyAutoBoundsNode>
      </data>
      <graph edgedefault="directed" id="n0:">
        <node id="n0::n0">
          <data key="d6">
            <y:ShapeNode>
              <y:Geometry height="97.0" width="74.6" x="827.6050040896841" y="-121.66654781250222"/>
              <y:Fill color="#FFFFFF" color2="#D4D4D4CC" transparent="false"/>
              <y:BorderStyle color="#009999" raised="false" type="line" width="1.0"/>
              <y:NodeLabel alignment="center" autoSizePolicy="content" fontFamily="Gill Sans MT" fontSize="12" fontStyle="bold" hasBackgroundColor="false" hasLineColor="false" height="45.748046875" horizontalTextPosition="center" iconTextGap="4" modelName="custom" textColor="#009999" verticalTextPosition="bottom" visible="true" width="56.740234375" x="8.929882812499955" y="25.6259765625">Zero
Trust
Blueprint<y:LabelModel>
                  <y:SmartNodeLabelModel distance="4.0"/>
                </y:LabelModel>
                <y:ModelParameter>
                  <y:SmartNodeLabelModelParameter labelRatioX="0.0" labelRatioY="0.0" nodeRatioX="0.0" nodeRatioY="0.0" offsetX="0.0" offsetY="0.0" upX="0.0" upY="-1.0"/>
                </y:ModelParameter>
              </y:NodeLabel>
              <y:Shape type="rectangle"/>
              <y:DropShadow color="#E4E4E4BB" offsetX="3" offsetY="3"/>
            </y:ShapeNode>
          </data>
        </node>
        <node id="n0::n1">
          <data key="d6">
            <y:ShapeNode>
              <y:Geometry height="47.408" width="263.7279999999998" x="733.0410040896842" y="-217.6532678125023"/>
              <y:Fill color="#FFFFFF" color2="#D4D4D4CC" transparent="false"/>
              <y:BorderStyle color="#123EA2" raised="false" type="line" width="1.0"/>
              <y:NodeLabel alignment="center" autoSizePolicy="content" fontFamily="Gill Sans MT" fontSize="12" fontStyle="bold" hasBackgroundColor="false" hasLineColor="false" height="31.83203125" horizontalTextPosition="center" iconTextGap="4" modelName="custom" textColor="#7F7F7F" verticalTextPosition="bottom" visible="true" width="116.30078125" x="73.7136093749998" y="7.787984375000008">
Penetration Testing<y:LabelModel>
                  <y:SmartNodeLabelModel distance="4.0"/>
                </y:LabelModel>
                <y:ModelParameter>
                  <y:SmartNodeLabelModelParameter labelRatioX="0.0" labelRatioY="0.0" nodeRatioX="-2.220446049250313E-16" nodeRatioY="1.1102230246251565E-16" offsetX="0.0" offsetY="0.0" upX="0.0" upY="-1.0"/>
                </y:ModelParameter>
              </y:NodeLabel>
              <y:Shape type="triangle"/>
              <y:DropShadow color="#E4E4E4BB" offsetX="3" offsetY="3"/>
            </y:ShapeNode>
          </data>
        </node>
        <node id="n0::n2">
          <data key="d6">
            <y:ShapeNode>
              <y:Geometry height="40.75200000000001" width="263.72799999999984" x="733.0410040896842" y="-166.60590781250227"/>
              <y:Fill color="#FFFFFF" color2="#D4D4D4CC" transparent="false"/>
              <y:BorderStyle color="#990066" raised="false" type="line" width="1.0"/>
              <y:NodeLabel alignment="center" autoSizePolicy="content" fontFamily="Gill Sans MT" fontSize="12" fontStyle="bold" hasBackgroundColor="false" hasLineColor="false" height="31.83203125" horizontalTextPosition="center" iconTextGap="4" modelName="custom" textColor="#990066" verticalTextPosition="bottom" visible="true" width="147.89453125" x="57.91673437499992" y="4.459984375000005">Networking &amp; Encryption
Expertise<y:LabelModel>
                  <y:SmartNodeLabelModel distance="4.0"/>
                </y:LabelModel>
                <y:ModelParameter>
                  <y:SmartNodeLabelModelParameter labelRatioX="0.0" labelRatioY="0.0" nodeRatioX="0.0" nodeRatioY="0.0" offsetX="0.0" offsetY="0.0" upX="0.0" upY="-1.0"/>
                </y:ModelParameter>
              </y:NodeLabel>
              <y:Shape type="rectangle"/>
              <y:DropShadow color="#E4E4E4BB" offsetX="3" offsetY="3"/>
            </y:ShapeNode>
          </data>
        </node>
        <node id="n0::n3">
          <data key="d6">
            <y:ShapeNode>
              <y:Geometry height="40.75200000000001" width="263.7279999999998" x="733.0410040896842" y="-20.47918781250229"/>
              <y:Fill color="#FFFFFF" color2="#D4D4D4CC" transparent="false"/>
              <y:BorderStyle color="#0066CC" raised="false" type="line" width="1.0"/>
              <y:NodeLabel alignment="center" autoSizePolicy="content" fontFamily="Gill Sans MT" fontSize="12" fontStyle="bold" hasBackgroundColor="false" hasLineColor="false" height="17.916015625" horizontalTextPosition="center" iconTextGap="4" modelName="custom" textColor="#0066CC" verticalTextPosition="bottom" visible="true" width="97.568359375" x="83.07982031249992" y="11.417992187500005">Threat Modeling<y:LabelModel>
                  <y:SmartNodeLabelModel distance="4.0"/>
                </y:LabelModel>
                <y:ModelParameter>
                  <y:SmartNodeLabelModelParameter labelRatioX="0.0" labelRatioY="0.0" nodeRatioX="0.0" nodeRatioY="0.0" offsetX="0.0" offsetY="0.0" upX="0.0" upY="-1.0"/>
                </y:ModelParameter>
              </y:NodeLabel>
              <y:Shape type="rectangle"/>
              <y:DropShadow color="#E4E4E4BB" offsetX="3" offsetY="3"/>
            </y:ShapeNode>
          </data>
        </node>
        <node id="n0::n4">
          <data key="d6">
            <y:ShapeNode>
              <y:Geometry height="97.0" width="74.6" x="915.9972856896837" y="-121.66654781250222"/>
              <y:Fill color="#FFFFFF" color2="#D4D4D4CC" transparent="false"/>
              <y:BorderStyle color="#123EA2" raised="false" type="line" width="1.0"/>
              <y:NodeLabel alignment="center" autoSizePolicy="content" fontFamily="Gill Sans MT" fontSize="12" fontStyle="bold" hasBackgroundColor="false" hasLineColor="false" height="45.748046875" horizontalTextPosition="center" iconTextGap="4" modelName="custom" textColor="#7F7F7F" verticalTextPosition="bottom" visible="true" width="71.365234375" x="1.6173828124999545" y="25.6259765625">Security &amp;
Compliance
Processes<y:LabelModel>
                  <y:SmartNodeLabelModel distance="4.0"/>
                </y:LabelModel>
                <y:ModelParameter>
                  <y:SmartNodeLabelModelParameter labelRatioX="0.0" labelRatioY="0.0" nodeRatioX="0.0" nodeRatioY="0.0" offsetX="0.0" offsetY="0.0" upX="0.0" upY="-1.0"/>
                </y:ModelParameter>
              </y:NodeLabel>
              <y:Shape type="rectangle"/>
              <y:DropShadow color="#E4E4E4BB" offsetX="3" offsetY="3"/>
            </y:ShapeNode>
          </data>
        </node>
        <node id="n0::n5">
          <data key="d6">
            <y:ShapeNode>
              <y:Geometry height="97.0" width="74.6" x="739.2127224896846" y="-121.66654781250222"/>
              <y:Fill color="#FFFFFF" color2="#D4D4D4CC" transparent="false"/>
              <y:BorderStyle color="#123EA2" raised="false" type="line" width="1.0"/>
              <y:NodeLabel alignment="center" autoSizePolicy="content" fontFamily="Gill Sans MT" fontSize="12" fontStyle="bold" hasBackgroundColor="false" hasLineColor="false" height="45.748046875" horizontalTextPosition="center" iconTextGap="4" modelName="custom" textColor="#7F7F7F" verticalTextPosition="bottom" visible="true" width="68.482421875" x="3.0587890624999545" y="25.6259765625">Application
&amp; Code
Lifecycle<y:LabelModel>
                  <y:SmartNodeLabelModel distance="4.0"/>
                </y:LabelModel>
                <y:ModelParameter>
                  <y:SmartNodeLabelModelParameter labelRatioX="0.0" labelRatioY="0.0" nodeRatioX="0.0" nodeRatioY="0.0" offsetX="0.0" offsetY="0.0" upX="0.0" upY="-1.0"/>
                </y:ModelParameter>
              </y:NodeLabel>
              <y:Shape type="rectangle"/>
              <y:DropShadow color="#E4E4E4BB" offsetX="3" offsetY="3"/>
            </y:ShapeNode>
          </data>
        </node>
      </graph>
    </node>
  </graph>
  <data key="d7">
    <y:Resources/>
  </data>
</graphml>
