<?xml version="1.0" encoding="UTF-8" standalone="no"?>
<graphml xmlns="http://graphml.graphdrawing.org/xmlns" xmlns:java="http://www.yworks.com/xml/yfiles-common/1.0/java" xmlns:sys="http://www.yworks.com/xml/yfiles-common/markup/primitives/2.0" xmlns:x="http://www.yworks.com/xml/yfiles-common/markup/2.0" xmlns:xsi="http://www.w3.org/2001/XMLSchema-instance" xmlns:y="http://www.yworks.com/xml/graphml" xmlns:yed="http://www.yworks.com/xml/yed/3" xsi:schemaLocation="http://graphml.graphdrawing.org/xmlns http://www.yworks.com/xml/schema/graphml/1.1/ygraphml.xsd">
  <!--Created by yEd 3.19-->
  <key attr.name="Beschreibung" attr.type="string" for="graph" id="d0"/>
  <key for="port" id="d1" yfiles.type="portgraphics"/>
  <key for="port" id="d2" yfiles.type="portgeometry"/>
  <key for="port" id="d3" yfiles.type="portuserdata"/>
  <key attr.name="url" attr.type="string" for="node" id="d4"/>
  <key attr.name="description" attr.type="string" for="node" id="d5"/>
  <key for="node" id="d6" yfiles.type="nodegraphics"/>
  <key for="graphml" id="d7" yfiles.type="resources"/>
  <key attr.name="url" attr.type="string" for="edge" id="d8"/>
  <key attr.name="description" attr.type="string" for="edge" id="d9"/>
  <key for="edge" id="d10" yfiles.type="edgegraphics"/>
  <graph edgedefault="directed" id="G">
    <data key="d0"/>
    <node id="n0">
      <data key="d6">
        <y:ShapeNode>
          <y:Geometry height="179.0" width="179.0" x="650.44" y="-294.4599999999999"/>
          <y:Fill color="#990066" transparent="false"/>
          <y:BorderStyle color="#990066" raised="false" type="line" width="1.0"/>
          <y:NodeLabel alignment="center" autoSizePolicy="content" fontFamily="Dialog" fontSize="12" fontStyle="plain" hasBackgroundColor="false" hasLineColor="false" hasText="false" height="4.0" horizontalTextPosition="center" iconTextGap="4" modelName="custom" textColor="#000000" verticalTextPosition="bottom" visible="true" width="4.0" x="87.5" y="87.5">
            <y:LabelModel>
              <y:SmartNodeLabelModel distance="4.0"/>
            </y:LabelModel>
            <y:ModelParameter>
              <y:SmartNodeLabelModelParameter labelRatioX="0.0" labelRatioY="0.0" nodeRatioX="0.0" nodeRatioY="0.0" offsetX="0.0" offsetY="0.0" upX="0.0" upY="-1.0"/>
            </y:ModelParameter>
          </y:NodeLabel>
          <y:Shape type="ellipse"/>
        </y:ShapeNode>
      </data>
    </node>
    <node id="n1">
      <data key="d6">
        <y:SVGNode>
          <y:Geometry height="123.75" width="111.75999999999976" x="684.0600000000002" y="-266.8349999999999"/>
          <y:Fill color="#FFFFFF" transparent="false"/>
          <y:BorderStyle color="#FFFFFF" type="line" width="1.0"/>
          <y:NodeLabel alignment="center" autoSizePolicy="content" fontFamily="Dialog" fontSize="12" fontStyle="plain" hasBackgroundColor="false" hasLineColor="false" hasText="false" height="4.0" horizontalTextPosition="center" iconTextGap="4" modelName="sandwich" modelPosition="s" textColor="#000000" verticalTextPosition="bottom" visible="true" width="4.0" x="53.87999999999988" y="127.75"/>
          <y:SVGNodeProperties usingVisualBounds="true"/>
          <y:SVGModel svgBoundsPolicy="0">
            <y:SVGContent refid="1"/>
          </y:SVGModel>
        </y:SVGNode>
      </data>
    </node>
  </graph>
  <data key="d7">
    <y:Resources>
      <y:Resource id="1">&lt;?xml version="1.0" encoding="UTF-8" standalone="no"?&gt;
&lt;!-- Generator: Adobe Illustrator 19.0.0, SVG Export Plug-In . SVG Version: 6.00 Build 0)  --&gt;

&lt;svg
   xmlns:dc="http://purl.org/dc/elements/1.1/"
   xmlns:cc="http://creativecommons.org/ns#"
   xmlns:rdf="http://www.w3.org/1999/02/22-rdf-syntax-ns#"
   xmlns:svg="http://www.w3.org/2000/svg"
   xmlns="http://www.w3.org/2000/svg"
   xmlns:sodipodi="http://sodipodi.sourceforge.net/DTD/sodipodi-0.dtd"
   xmlns:inkscape="http://www.inkscape.org/namespaces/inkscape"
   version="1.1"
   id="Capa_1"
   x="0px"
   y="0px"
   viewBox="0 0 332.8 332.8"
   style="enable-background:new 0 0 332.8 332.8;"
   xml:space="preserve"
   sodipodi:docname="diamond-white.svg"
   inkscape:version="0.92.4 (5da689c313, 2019-01-14)"&gt;&lt;metadata
   id="metadata237"&gt;&lt;rdf:RDF&gt;&lt;cc:Work
       rdf:about=""&gt;&lt;dc:format&gt;image/svg+xml&lt;/dc:format&gt;&lt;dc:type
         rdf:resource="http://purl.org/dc/dcmitype/StillImage" /&gt;&lt;dc:title&gt;&lt;/dc:title&gt;&lt;/cc:Work&gt;&lt;/rdf:RDF&gt;&lt;/metadata&gt;&lt;defs
   id="defs235" /&gt;&lt;sodipodi:namedview
   pagecolor="#ffffff"
   bordercolor="#666666"
   borderopacity="1"
   objecttolerance="10"
   gridtolerance="10"
   guidetolerance="10"
   inkscape:pageopacity="0"
   inkscape:pageshadow="2"
   inkscape:window-width="933"
   inkscape:window-height="480"
   id="namedview233"
   showgrid="false"
   inkscape:zoom="0.70913464"
   inkscape:cx="166.39999"
   inkscape:cy="166.39999"
   inkscape:window-x="0"
   inkscape:window-y="0"
   inkscape:window-maximized="0"
   inkscape:current-layer="Capa_1" /&gt;
&lt;g
   id="g200"
   style="fill:#ffffff"&gt;
	&lt;g
   id="g198"
   style="fill:#ffffff"&gt;
		&lt;g
   id="g196"
   style="fill:#ffffff"&gt;
			&lt;polygon
   points="216.557,149.943 229.096,207.412 282.908,207.412 246.859,149.943    "
   id="polygon178"
   style="fill:#ffffff" /&gt;
			&lt;polygon
   points="200.361,149.943 131.92,149.943 120.426,207.412 212.9,207.412    "
   id="polygon180"
   style="fill:#ffffff" /&gt;
			&lt;polygon
   points="122.516,223.086 166.402,332.8 210.81,223.086    "
   id="polygon182"
   style="fill:#ffffff" /&gt;
			&lt;polygon
   points="116.247,149.943 85.945,149.943 49.896,207.412 104.753,207.412    "
   id="polygon184"
   style="fill:#ffffff" /&gt;
			&lt;polygon
   points="53.553,223.086 143.936,318.694 105.798,223.086    "
   id="polygon186"
   style="fill:#ffffff" /&gt;
			&lt;polygon
   points="188.867,318.694 278.728,223.086 227.528,223.086    "
   id="polygon188"
   style="fill:#ffffff" /&gt;
			&lt;path
   d="M163.789,67.918c4.328,0,7.837-3.509,7.837-7.837V7.837c0-4.328-3.509-7.837-7.837-7.837s-7.837,3.509-7.837,7.837     v52.245C155.953,64.41,159.461,67.918,163.789,67.918z"
   id="path190"
   style="fill:#ffffff" /&gt;
			&lt;path
   d="M322.614,52.767c-3.462-2.597-8.375-1.895-10.971,1.567l-31.347,41.796c-2.597,3.462-1.895,8.375,1.567,10.971     c1.373,0.986,3.012,1.532,4.702,1.567c2.487,0.09,4.849-1.091,6.269-3.135l31.347-41.796     C326.778,60.276,326.076,55.364,322.614,52.767z"
   id="path192"
   style="fill:#ffffff" /&gt;
			&lt;path
   d="M52.508,96.131L21.161,54.335c-2.594-3.464-7.506-4.17-10.97-1.575c-3.464,2.594-4.17,7.506-1.575,10.97     c0.002,0.003,0.004,0.006,0.007,0.009l31.347,41.796c1.42,2.043,3.782,3.224,6.269,3.135c1.69-0.035,3.329-0.582,4.702-1.567     C54.403,104.505,55.105,99.593,52.508,96.131z"
   id="path194"
   style="fill:#ffffff" /&gt;
		&lt;/g&gt;
	&lt;/g&gt;
&lt;/g&gt;
&lt;g
   id="g202"&gt;
&lt;/g&gt;
&lt;g
   id="g204"&gt;
&lt;/g&gt;
&lt;g
   id="g206"&gt;
&lt;/g&gt;
&lt;g
   id="g208"&gt;
&lt;/g&gt;
&lt;g
   id="g210"&gt;
&lt;/g&gt;
&lt;g
   id="g212"&gt;
&lt;/g&gt;
&lt;g
   id="g214"&gt;
&lt;/g&gt;
&lt;g
   id="g216"&gt;
&lt;/g&gt;
&lt;g
   id="g218"&gt;
&lt;/g&gt;
&lt;g
   id="g220"&gt;
&lt;/g&gt;
&lt;g
   id="g222"&gt;
&lt;/g&gt;
&lt;g
   id="g224"&gt;
&lt;/g&gt;
&lt;g
   id="g226"&gt;
&lt;/g&gt;
&lt;g
   id="g228"&gt;
&lt;/g&gt;
&lt;g
   id="g230"&gt;
&lt;/g&gt;
&lt;/svg&gt;</y:Resource>
    </y:Resources>
  </data>
</graphml>
